"UnlitGeneric"
{
	"$additive" 1
	"$basetexture" "FFmdls/Kleiner/glasslens"
	"$translucent" 1
	"$envmap" "env_cubemap"
	"$envmapcontrast" "1"
	"$model" 1
	"$halflambert" 1
	"UnlitGeneric_DX8"
	{
		"$envmaptint" "[.4 .4 .4]"
	} 
}
