// envmaptint_fix
"VertexLitGeneric"
{
	"$basetexture" "FFmdls/Weapons/W_IRifle/W_IRifle"
	"$surfaceprop" "metal"
	"$bumpmap" "FFmdls/Weapons/W_IRifle/W_IRifle_normal"
	"$envmap" "env_cubemap"
	"$normalmapalphaenvmapmask" 1
	"$envmapcontrast" 1
	"$envmapsaturation" 1
	"$envmaptint" "[ .56 .67 .75 ]"
}
