"VertexLitGeneric"
{
	"$basetexture" "phoenix_storms/spheremappy"
	"$surfaceprop" "metal"
	"$bumpmap" "phoenix_storms/sphere_bump"
	"$envmap" "env_cubemap"
	"$envmaptint" "[ .3 .3 .3 ]"
	//"$envmapmask" "Models/props_combine/combine_binocular01_mask"
	"$selfillum" 0
	"$model" 1
}


