"VertexLitGeneric"
{
	"$basetexture" "FFmdls/Alyx/alyx_sheet"
	"$halflambert" 1
    "$envmap" "env_cubemap"
 //      "$envmap" "environment maps/specular"	
	"$basealphaenvmapmask" 1
	"$envmaptint" "[0.3 0.3 0.3]"
	"$nodecal" "1"
}